{
  "predicates": [
    {
      "name": "serial_numb",
      "offset": 3,
      "mask": "0xFF",
      "value": 255
    },
    {
      "name": "data_string",
      "offset": 3,
      "mask": "0xFF",
      "value": 254
    },
    {
      "name": "rang_lim",
      "offset": 3,
      "mask": "0xFF",
      "value": 253
    },
    {
      "name": "prod_name",
      "offset": 3,
      "mask": "0xFF",
      "value": 252
    },
    {
      "name": "color_point_data",
      "offset": 3,
      "mask": "0xFF",
      "value": 251
    },
    {
      "name": "stan_tim",
      "offset": 3,
      "mask": "0xFF",
      "value": 250
    },
    {
      "name": "d_d_1",
      "localoffset": 0,
      "mask": "0xFF",
      "value": 0
    },
    {
      "name": "d_d_2",
      "localoffset": 1,
      "mask": "0xFF",
      "value": 0
    }
  ],
  "name": "Display Descriptor Definitions",
  "offset": 90,
  "size": 18,
  "conditions": [ "d_d_1", "d_d_2" ],
  "items": [
    {
      "name": "Display Product Serial Number",
      "conditions": [ "serial_numb" ],
      "type": "string",
      "offset": 5,
      "size": 13
    },
    {
      "name": "Alphanumeric Data String Definition",
      "conditions": [ "data_string" ],
      "type": "string",
      "offset": 5,
      "size": 13
    },
    {
      "predicates": [
        {
          "name": "V_max=min=",
          "offset": 0,
          "mask": "0x3",
          "value": 0
        },
        {
          "name": "V_max+min=",
          "offset": 0,
          "mask": "0x3",
          "value": 2
        },
        {
          "name": "V_max+min+",
          "offset": 0,
          "mask": "0x3",
          "value": 3
        },
        {
          "name": "H_max=min=",
          "offset": 0,
          "mask": "0xC",
          "value": 0
        },
        {
          "name": "H_max+min=",
          "offset": 0,
          "mask": "0xC",
          "value": 8
        },
        {
          "name": "H_max+min+",
          "offset": 0,
          "mask": "0xC",
          "value": 12
        },
        {
          "name": "fut_sup",
          "offset": "Block0.offset 24",
          "mask": "0x1",
          "value": 1
        },
        {
          "name": "GTF_sec_sup",
          "offset": 6,
          "mask": "0xFF",
          "value": 2
        },
        {
          "name": "CVT_sup",
          "offset": 6,
          "mask": "0xFF",
          "value": 2
        },
        {
          "name": "84_zero",
          "offset": 7,
          "mask": "0xFF",
          "value": 0
        }
      ],
      "types": [
        {
          "name": "Pix",
          "on_read_steps": [
            {
              "operator": "*",
              "r_operand": 10
            }
          ],
          "on_write_steps": [
            {
              "operator": "/",
              "r_operand": 10
            }
          ]
        },
        {
          "name": "Rate",
          "on_read_steps": [
            {
              "operator": "+",
              "r_operand": 255
            }
          ],
          "on_write_steps": [
            {
              "operator": "-",
              "r_operand": 255
            }
          ]
        },
        {
          "name": "h_f",
          "on_read_steps": [
            {
              "operator": "*",
              "r_operand": 2
            }
          ],
          "on_write_steps": [
            {
              "operator": "/",
              "r_operand": 2
            }
          ]
        },
        {
          "name": "d2",
          "on_read_steps": [
            {
              "operator": "/",
              "r_operand": 2
            }
          ],
          "on_write_steps": [
            {
              "operator": "*",
              "r_operand": 2
            }
          ]
        }
      ],
      "name": "Display Range Limits",
      "conditions": [ "rang_lim" ],
      "offset": 4,
      "size": 14,     
      "items": [
        {
          "name": "Minimum Vertical Rate",
          "conditions": [ "V_max=min=" ],
          "offset": 1,
          "size": 1
        },
        {
          "name": "Minimum Vertical Rate",
          "conditions": [ "V_max+min+" ],
          "type": "Rate",
          "offset": 1,
          "size": 1
        },
        {
          "name": "Maximum Vertical Rate",
          "conditions": [ "V_max=min=" ],
          "offset": 2,
          "size": 1
        },
        {
          "name": "Maximum Vertical Rate",
          "conditions": [ "V_max+min=" ],
          "type": "Rate",
          "offset": 2,
          "size": 1
        },
        {
          "name": "Maximum Vertical Rate",
          "conditions": [ "V_max+min+" ],
          "type": "Rate",
          "offset": 2,
          "size": 1
        },
        {
          "name": "Minimum Horizontal Rate",
          "conditions": [ "H_max=min=" ],
          "offset": 3,
          "size": 1
        },
        {
          "name": "Minimum Horizontal Rate",
          "conditions": [ "H_max+min+" ],
          "type": "Rate",
          "offset": 3,
          "size": 1
        },
        {
          "name": "Maximum Horizontal Rate",
          "conditions": [ "H_max=min=" ],
          "offset": 4,
          "size": 1
        },
        {
          "name": "Maximum Horizontal Rate",
          "conditions": [ "H_max+min=" ],
          "type": "Rate",
          "offset": 4,
          "size": 1
        },
        {
          "name": "Maximum Horizontal Rate",
          "conditions": [ "H_max+min+" ],
          "type": "Rate",
          "offset": 4,
          "size": 1
        },
        {
          "name": "Maximum Pixel Clock",
          "type": "Pix",
          "offset": 5,
          "size": 1
        },
        {
          "name": "GTF Secondary Curve Definitions",
          "conditions": [ "GTF_sec_sup", "84_zero" ],
          "offset": 9,
          "size": 6,
          "items": [
            {
              "name": "Horizontal Frequency",
              "type": "h_f",
              "offset": 3,
              "size": 1
            },
            {
              "name": "C",
              "type": "d2",
              "offset": 4,
              "size": 1
            },
            {
              "name": "M",
              "offset": 6,
              "size": 2
            },
            {
              "name": "K",
              "offset": 7,
              "size": 1
            },
            {
              "name": "J",
              "type": "d2",
              "offset": 8,
              "size": 1
            }
          ]
        },
        {
          "name": "CVT Support Definition",
          "conditions": [ "CVT_sup" ],
          "offset": 11,
          "size": 7,
          "items": [
            {
              "name": "CVT Standard Version Number",
              "offset": 0,
              "size": 1,
              "items": [
                {
                  "name": "major version",
                  "offset": 0,
                  "size": 1,
                  "mask": "0xF0"
                },
                {
                  "name": "minor version",
                  "offset": 0,
                  "size": 1,
                  "mask": "0x0F"
                }
              ]
            },
            {
              "name": "Additional Pixel Clock Precision",
              "type": "h_f",
              "offset": 1,
              "size": 1
            },
            {
              "name": "Maximum Active Pixels per Line - Most Significant Bits",
              "offset": 1,
              "mask": "0x3",
              "size": 1
            },
            {
              "name": "Maximum Active Pixels per Line - Least Significant Bits",
              "offset": 2,
              "mask": "0x3",
              "size": 1
            },
            {
              "name": "Supported Aspect Ratios",
              "type": "bool",
              "offset": 3,
              "size": 1,
              "values": [
                {
                  "mask": "0x80",
                  "name": "4 : 3 AR"
                },
                {
                  "mask": "0x40",
                  "name": "16 : 9 AR"
                },
                {
                  "mask": "0x20",
                  "name": "16 : 10 AR"
                },
                {
                  "mask": "0x10",
                  "name": "5 : 4 AR"
                },
                {
                  "mask": "0x8",
                  "name": "15 : 9 AR"
                }
              ]
            },
            {
              "name": "Preferred Aspect Ratio",
              "type": "enum",
              "offset": 4,
              "size": 1,
              "mask": "0xE7",
              "values": [
                {
                  "value": 0,
                  "name": "4 : 3 AR"
                },
                {
                  "value": 32,
                  "name": "16 : 9 AR"
                },
                {
                  "value": 64,
                  "name": "16 : 10 AR"
                },
                {
                  "value": 96,
                  "name": "5 : 4 AR"
                },
                {
                  "value": 128,
                  "name": "15 : 9 AR"
                }
              ]
            },
            {
              "name": "CVT Blanking Support",
              "type": "bool",
              "offset": 4,
              "size": 1,
              "values": [
                {
                  "mask": "0x8",
                  "name": "Standard CVT Blanking is supported"
                },
                {
                  "mask": "0x10",
                  "name": "Reduced CVT Blanking is supported (preferred)"
                }
              ]
            },
            {
              "name": "Type of Display Scaling Supported",
              "type": "bool",
              "offset": 5,
              "size": 1,
              "values": [
                {
                  "mask": "0x80",
                  "name": "Horizontal Shrink"
                },
                {
                  "mask": "0x40",
                  "name": "Horizontal Stretch"
                },
                {
                  "mask": "0x20",
                  "name": "Vertical Shrink"
                },
                {
                  "mask": "0x10",
                  "name": "Vertical Stretch"
                }
              ]
            },
            {
              "name": "Preferred Vertical Refresh Rate",
              "offset": 6,
              "size": 1
            }
          ]
        },
        {
          "name": "Display Product Name",
          "conditions": [ "serial_numb" ],
          "type": "string",
          "offset": 5,
          "size": 13
        },
        {
          "name": "Color Point Descriptor Definition",
          "conditions": [ "color_point_data" ],
          "offset": 5,
          "size": 13,
          "types": [
            {
              "name": "Gamma",
              "on_read_steps": [
                {
                  "operator": "+",
                  "r_operand": 100
                },
                {
                  "operator": "/",
                  "r_operand": 100
                }
              ],
              "on_write_steps": [
                {
                  "operator": "*",
                  "r_operand": 100
                },
                {
                  "operator": "-",
                  "r_operand": 100
                }
              ]
            }
          ],
          "items": [
            {
              "name": "White Point Index Number (Binary)",
              "offset": 0,
              "size": 1
            },
            {
              "name": "White-X",
              "type": "packed",
              "lsb": 0.0009765625,
              "bitsCount": 10,
              "parts": [
                {
                  "offset": 1,
                  "mask": "0xC"
                },
                {
                  "offset": 2,
                  "mask": "0xFF"
                }
              ]
            },
            {
              "name": "White-Y",
              "type": "packed",
              "lsb": 0.0009765625,
              "bitsCount": 10,
              "parts": [
                {
                  "offset": 1,
                  "mask": "0x3"
                },
                {
                  "offset": 3,
                  "mask": "0xFF"
                }
              ]
            },
            {
              "name": "Gamma",
              "offset": 4,
              "size": 1,
              "type": "Gamma"
            },
            {
              "name": "White Point Index Number (Binary)",
              "offset": 5,
              "size": 1
            },
            {
              "name": "White-X",
              "type": "packed",
              "lsb": 0.0009765625,
              "bitsCount": 10,
              "parts": [
                {
                  "offset": 6,
                  "mask": "0xC"
                },
                {
                  "offset": 7,
                  "mask": "0xFF"
                }
              ]
            },
            {
              "name": "White-Y",
              "type": "packed",
              "lsb": 0.0009765625,
              "bitsCount": 10,
              "parts": [
                {
                  "offset": 6,
                  "mask": "0x3"
                },
                {
                  "offset": 8,
                  "mask": "0xFF"
                }
              ]
            },
            {
              "name": "Gamma",
              "offset": 9,
              "size": 1,
              "type": "Gamma"
            },
            {
              "name": "Line Feed",
              "offset": 10,
              "size": 1,
              "value": 10
            },
            {
              "name": "Space",
              "offset": 11,
              "size": 1,
              "value": 32
            },
            {
              "name": "Space",
              "offset": 12,
              "size": 1,
              "value": 32
            }
          ]
        },
        {
          "name": "Standard Timing Identifications",
          "offset": 5,
          "conditions": [ "stan_tim" ],
          "size": 12,
          "items": [
            {
              "name": "Standard Timing 9",
              "offset": 0,
              "size": 2,
              "values": [
                {
                  "offset": 0,
                  "mask": "0x80",
                  "type": "Pix"
                },
                {
                  "name": "Image Aspect Ratio",
                  "type": "enum",
                  "offset": 1,
                  "mask": "0xC0",
                  "values": [
                    {
                      "value": 0,
                      "name": "16 : 10 AR"
                    },
                    {
                      "value": 1,
                      "name": "4 : 3 AR"
                    },
                    {
                      "value": 2,
                      "name": "5 : 4 AR"
                    },
                    {
                      "value": 3,
                      "name": "16 : 9 AR"
                    }
                  ]
                },
                {
                  "name": "Field Refresh Rate",
                  "offset": 1,
                  "mask": "0x3F",
                  "type": "Refresh"
                }
              ]
            },
            {
              "name": "Standard Timing 10",
              "offset": 2,
              "size": 2,
              "values": [
                {
                  "offset": 0,
                  "mask": "0x80",
                  "type": "Pix"
                },
                {
                  "name": "Image Aspect Ratio",
                  "type": "enum",
                  "offset": 1,
                  "mask": "0xC0",
                  "values": [
                    {
                      "value": 0,
                      "name": "16 : 10 AR"
                    },
                    {
                      "value": 1,
                      "name": "4 : 3 AR"
                    },
                    {
                      "value": 2,
                      "name": "5 : 4 AR"
                    },
                    {
                      "value": 3,
                      "name": "16 : 9 AR"
                    }
                  ]
                },
                {
                  "name": "Field Refresh Rate",
                  "offset": 1,
                  "mask": "0x3F",
                  "type": "Refresh"
                }
              ]
            },
            {
              "name": "Standard Timing 11",
              "offset": 4,
              "size": 2,
              "values": [
                {
                  "offset": 0,
                  "mask": "0x80",
                  "type": "Pix"
                },
                {
                  "name": "Image Aspect Ratio",
                  "type": "enum",
                  "offset": 1,
                  "mask": "0xC0",
                  "values": [
                    {
                      "value": 0,
                      "name": "16 : 10 AR"
                    },
                    {
                      "value": 1,
                      "name": "4 : 3 AR"
                    },
                    {
                      "value": 2,
                      "name": "5 : 4 AR"
                    },
                    {
                      "value": 3,
                      "name": "16 : 9 AR"
                    }
                  ]
                },
                {
                  "name": "Field Refresh Rate",
                  "offset": 1,
                  "mask": "0x3F",
                  "type": "Refresh"
                }
              ]
            },
            {
              "name": "Standard Timing 12",
              "offset": 6,
              "size": 2,
              "values": [
                {
                  "offset": 0,
                  "mask": "0x80",
                  "type": "Pix"
                },
                {
                  "name": "Image Aspect Ratio",
                  "type": "enum",
                  "offset": 1,
                  "mask": "0xC0",
                  "values": [
                    {
                      "value": 0,
                      "name": "16 : 10 AR"
                    },
                    {
                      "value": 1,
                      "name": "4 : 3 AR"
                    },
                    {
                      "value": 2,
                      "name": "5 : 4 AR"
                    },
                    {
                      "value": 3,
                      "name": "16 : 9 AR"
                    }
                  ]
                },
                {
                  "name": "Field Refresh Rate",
                  "offset": 1,
                  "mask": "0x3F",
                  "type": "Refresh"
                }
              ]
            },
            {
              "name": "Standard Timing 13",
              "offset": 8,
              "size": 2,
              "values": [
                {
                  "offset": 0,
                  "mask": "0x80",
                  "type": "Pix"
                },
                {
                  "name": "Image Aspect Ratio",
                  "type": "enum",
                  "offset": 1,
                  "mask": "0xC0",
                  "values": [
                    {
                      "value": 0,
                      "name": "16 : 10 AR"
                    },
                    {
                      "value": 1,
                      "name": "4 : 3 AR"
                    },
                    {
                      "value": 2,
                      "name": "5 : 4 AR"
                    },
                    {
                      "value": 3,
                      "name": "16 : 9 AR"
                    }
                  ]
                },
                {
                  "name": "Field Refresh Rate",
                  "offset": 1,
                  "mask": "0x3F",
                  "type": "Refresh"
                }
              ]
            },
            {
              "name": "Standard Timing 14",
              "offset": 10,
              "size": 2,
              "values": [
                {
                  "offset": 0,
                  "mask": "0x80",
                  "type": "Pix"
                },
                {
                  "name": "Image Aspect Ratio",
                  "type": "enum",
                  "offset": 1,
                  "mask": "0xC0",
                  "values": [
                    {
                      "value": 0,
                      "name": "16 : 10 AR"
                    },
                    {
                      "value": 1,
                      "name": "4 : 3 AR"
                    },
                    {
                      "value": 2,
                      "name": "5 : 4 AR"
                    },
                    {
                      "value": 3,
                      "name": "16 : 9 AR"
                    }
                  ]
                },
                {
                  "name": "Field Refresh Rate",
                  "offset": 1,
                  "mask": "0x3F",
                  "type": "Refresh"
                }
              ]
            },
            {
              "name": "Line Feed",
              "offset": 12,
              "size": 1,
              "value": 10
            }
          ]
        }      
      ]
    }
  ]
}
        