{
  "name": "Block0",
  "description": "VESA standart identification data Ver. 1 Rev. 4",
  "offset": 0,
  "size": 128,
  "items": [
    {
      "name": "Header",
      "offset": 0,
      "size": 8,
      "value": 72057594037927680
    },
    {
      "name": "ID Manufacturer Name",
      "offset": 8,
      "size": 2,
      "values": [
        {
          "offset": 0,
          "$comment": "Нужно сдвигать биты к 0 разряду",
          "mask": "0x7C00",
          "type": "char"
        },
        {
          "offset": 0,
          "$comment": "Нужно сдвигать биты к 0 разряду",
          "mask": "0x3E0",
          "type": "char"
        },
        {
          "offset": 0,
          "$comment": "Нужно сдвигать биты к 0 разряду",
          "mask": "0x1F",
          "type": "char"
        }
      ]
    },
    {
      "name": "ID Product Code",
      "offset": 10,
      "size": 2,
      "values": [
        {
          "offset": 0,
          "mask": "0xFF",
          "type": "hex"
        },
        {
          "offset": 1,
          "mask": "0xFF",
          "type": "hex"
        }
      ]
    },
    {
      "name": "ID Serial Number",
      "offset": 12,
      "size": 4,
      "values": [
        {
          "offset": 0,
          "mask": "0xFFFFFFFF",
          "type": "int"
        }
      ]
    },
    {
      "types": [
        {
          "name": "year",
          "on_read_steps": [
            {
              "operator": "+",
              "r_operand": 1990
            }
          ],
          "on_write_steps": [
            {
              "operator": "-",
              "r_operand": 1990
            }
          ]
        }
      ],
      "predicates": [
        {
          "name": "WeoMdef",
          "offset": 0,
          "mask": "0x00FF",
          "value": 0
        }
      ],
      "name": "Week & Year of Manufacture or Model Year",
      "offset": 16,
      "conditions": [ "WeoMdef" ],
      "size": 2,
      "values": [
        {
          "offset": 0,
          "mask": "0xFF",
          "type": "int"
        },
        {
          "offset": 1,
          "mask": "0xFF",
          "type": "year"
        }
      ]
    },
    {
      "name": "EDID Structure Version and Revision Numbers",
      "offset": 18,
      "size": 2,
      "values": [
        {
          "offset": 0,
          "mask": "0xFF",
          "type": "int"
        },
        {
          "offset": 1,
          "mask": "0xFF",
          "type": "int"
        }
      ]
    },
    {
      "types": [
        {
          "$comment": "Пример типа, steps - шаги преобразования значения при чтении или записи, их порядок важен",
          "name": "gamma",
          "on_read_steps": [
            {
              "operator": "+",
              "r_operand": 100
            },
            {
              "operator": "/",
              "r_operand": 100
            }
          ],
          "on_write_steps": [
            {
              "operator": "*",
              "r_operand": 100
            },
            {
              "operator": "-",
              "r_operand": 100
            }
          ]
        }
      ],
      "predicates": [
        {
          "name": "analog",
          "offset": 0,
          "mask": "0x80",
          "value": 0
        },
        {
          "name": "digital",
          "offset": 0,
          "mask": "0x80",
          "value": 1
        }
      ],
      "name": "Basic Display Parameters / Features",
      "offset": 20,
      "size": 5,
      "items": [
        {
          "name": "Video Input Definition",
          "offset": 0,
          "size": 1,
          "items": [
            {
              "$comment": "Набор значений типа bool",
              "name": "Video Signal Interface",
              "offset": 0,
              "type": "bool",
              "values": [
                {
                  "name": "Analog Video Signal Interface",
                  "conditions": [ "analog" ]
                },
                {
                  "name": "Digital Video Signal Interface",
                  "conditions": [ "digital" ]
                }
              ]
            },
            {
              "$comment": "Значение типа enum",
              "name": "Signal Level Standard",
              "type": "enum",
              "$comment1": "Если указанное условие, определенное в predicates выше в иерархии не соблюдается, то не рассматриваем это значение при чтении edid",
              "conditions": [ "analog" ],
              "offset": 0,
              "mask": "0x60",
              "values": [
                {
                  "value": 0,
                  "name": "0.700 : 0.300 : 1.000 V p-p"
                },
                {
                  "value": 1,
                  "name": "0.714 : 0.286 : 1.000 V p-p"
                },
                {
                  "value": 2,
                  "name": "1.000 : 0.400 : 1.400 V p-p"
                },
                {
                  "value": 3,
                  "name": "0.700 : 0.000 : 0.700 V p-p"
                }
              ]
            },
            {
              "name": "Video Setup",
              "type": "bool",
              "conditions": [ "analog" ],
              "$comment": "В данном случае используется для выбора значения используется маска",
              "offset": 0,
              "mask": "0x10",
              "values": [
                {
                  "$comment": "false - если прочитанный байт с маской равен 0, иначе true",
                  "false": "Video Setup: Blank Level = Black Level",
                  "true": "Video Setup: Blank-to-Black setup or pedestal"
                }
              ]
            },
            {
              "name": "Synchronization Types",
              "type": "bool",
              "conditions": [ "analog" ],
              "offset": 0,
              "mask": "0xE",
              "values": [
                {
                  "$comment": "Можно дополнительно указать маску",
                  "mask": "0x8",
                  "false": "Separate Sync H & V Signals are not supported",
                  "true": "Separate Sync H & V Signals are supported"
                },
                {
                  "mask": "0x4",
                  "false": "Composite Sync Signal on Horizontal is not supported",
                  "true": "Composite Sync Signal on Horizontal is supported"
                },
                {
                  "mask": "0x2",
                  "false": "Composite Sync Signal on Green Video is not supported",
                  "true": "Composite Sync Signal on Green Video is supported"
                }
              ]
            },
            {
              "name": "Serrations",
              "type": "bool",
              "conditions": [ "analog" ],
              "offset": 0,
              "mask": "0x1",
              "values": [
                {
                  "false": "Separate Sync H & V Signals are not supported",
                  "true": "Separate Sync H & V Signals are supported"
                }
              ]
            },
            {
              "name": "Color Bit Depth",
              "type": "enum",
              "conditions": [ "digital" ],
              "offset": 0,
              "mask": "0x70",
              "values": [
                {
                  "value": 0,
                  "name": "Color Bit Depth is undefined"
                },
                {
                  "value": 1,
                  "name": "6 Bits per Primary Color"
                },
                {
                  "value": 2,
                  "name": "8 Bits per Primary Color"
                },
                {
                  "value": 3,
                  "name": "10 Bits per Primary Color"
                },
                {
                  "value": 4,
                  "name": "12 Bits per Primary Color"
                },
                {
                  "value": 5,
                  "name": "14 Bits per Primary Color"
                },
                {
                  "value": 6,
                  "name": "16 Bits per Primary Color"
                },
                {
                  "value": 7,
                  "name": "Reserved (Do Not Use)"
                }
              ]
            },
            {
              "name": "Digital Video Interface Standard Supported",
              "type": "enum",
              "conditions": [ "digital" ],
              "offset": 0,
              "mask": "0xF",
              "values": [
                {
                  "value": 0,
                  "name": "Digital Interface is not defined "
                },
                {
                  "value": 1,
                  "name": "DVI is supported"
                },
                {
                  "value": 2,
                  "name": "HDMI-a is supported"
                },
                {
                  "value": 3,
                  "name": "HDMI-b is supported"
                },
                {
                  "value": 4,
                  "name": "MDDI is supported"
                },
                {
                  "value": 5,
                  "name": "DisplayPort is supported"
                }
              ]
            }
          ]
        },
        {
          "name": "Horizontal Screen Size or Aspect Ratio ‘Landscape’ and Vertical Screen Size or Aspect Ratio ‘Portrait’ ",
          "offset": 1,
          "size": 2,
          "types": [
            {
              "name": "ar_landscape",
              "on_read_steps": [
                {
                  "operator": "+",
                  "r_operand": 99
                },
                {
                  "operator": "/",
                  "r_operand": 100
                }
              ],
              "on_write_steps": [
                {
                  "operator": "*",
                  "r_operand": 100
                },
                {
                  "operator": "-",
                  "r_operand": 99
                }
              ]
            },
            {
              "name": "ar_portrait",
              "on_read_steps": [
                {
                  "operator": "+",
                  "r_operand": 99
                },
                {
                  "operator": "/",
                  "l_operand": 100
                }
              ],
              "on_write_steps": [
                {
                  "operator": "/",
                  "l_operand": 100
                },
                {
                  "operator": "-",
                  "r_operand": 99
                }
              ]
            }
          ],
          "predicates": [
            {
              "name": "isHrzScrSize",
              "offset": 1,
              "mask": "0xFF",
              "value": "notnull"
            },
            {
              "name": "isAspRatioLandscape",
              "offset": 1,
              "mask": "0xFF",
              "value": "null"
            },
            {
              "name": "isAspRatioPortrait",
              "offset": 0,
              "mask": "0xFF",
              "value": "null"
            },
            {
              "name": "isVrtScrSize",
              "offset": 0,
              "mask": "0xFF",
              "value": "notnull"
            }
          ],
          "items": [
            {
              "name": "Horizontal Screen Size",
              "type": "uint8_t",
              "conditions": [ "isHrzScrSize" ],
              "offset": 0,
              "mask": "0xFF"
            },
            {
              "name": "Aspect Ratio (Landscape)",
              "$comment": "ar_landscape - определенный выше тип",
              "type": "ar_landscape",
              "conditions": [ "isAspRatioLandscape" ],
              "offset": 0,
              "mask": "0xFF"
            },
            {
              "name": "Vertical Screen Size",
              "type": "uint8_t",
              "conditions": [ "isVrtScrSize" ],
              "offset": 1,
              "mask": "0xFF"
            },
            {
              "name": "Aspect Ratio (Landscape)",
              "type": "ar_portrait",
              "conditions": [ "isAspRatioPortrait" ],
              "offset": 1,
              "mask": "0xFF"
            }
          ]
        },
        {
          "name": "Display Transfer Characteristics (GAMMA)",
          "type": "gamma",
          "offset": 3,
          "size": 1,
          "mask": "0xFF"
        },
        {
          "name": "Feature Support",
          "offset": 4,
          "size": 1,
          "items": [
            {
              "name": "Display Power Management",
              "type": "bool",
              "offset": 0,
              "mask": "0xE0",
              "values": [
                {
                  "mask": "0x80",
                  "false": "Standby Mode is not supported",
                  "true": "Standby Mode is supported"
                },
                {
                  "mask": "0x40",
                  "false": "Suspend Mode is not supported",
                  "true": "Suspend Mode is supported"
                },
                {
                  "mask": "0x20",
                  "false": "Active Off = Very Low Power is not supported",
                  "true": "Active Off = Very Low Power is supported"
                }
              ]
            },
            {
              "name": "Display Color Type",
              "type": "enum",
              "conditions": [ "analog" ],
              "offset": 0,
              "mask": "0x18",
              "values": [
                {
                  "value": 0,
                  "name": "Monochrome or Grayscale display"
                },
                {
                  "value": 1,
                  "name": "RGB color display"
                },
                {
                  "value": 2,
                  "name": "Non-RGB color display"
                },
                {
                  "value": 3,
                  "name": "Display Color Type is Undefined"
                }
              ]
            },
            {
              "name": "Supported Color Encoding Formats",
              "type": "enum",
              "conditions": [ "digital" ],
              "offset": 0,
              "mask": "0x18",
              "values": [
                {
                  "value": 0,
                  "name": "RGB 4:4:4"
                },
                {
                  "value": 1,
                  "name": "RGB 4:4:4 & YCrCb 4:4:4"
                },
                {
                  "value": 2,
                  "name": "RGB 4:4:4 & YCrCb 4:2:2"
                },
                {
                  "value": 3,
                  "name": "RGB 4:4:4 & YCrCb 4:4:4 & YCrCb 4:2:2"
                }
              ]
            },
            {
              "name": "Other Feature Support Flags",
              "type": "bool",
              "offset": 0,
              "mask": "0x7",
              "values": [
                {
                  "mask": "0x4",
                  "false": "sRGB Standard is not the default color space",
                  "true": "sRGB Standard is the default color space"
                },
                {
                  "mask": "0x2",
                  "false": "Preferred Timing Mode does not include the native pixel format and preferred refresh rate of the display device",
                  "true": "Preferred Timing Mode includes the native pixel format and preferred refresh rate of the display device"
                },
                {
                  "mask": "0x1",
                  "false": "Display is non-continuous frequency (multi-mode)",
                  "true": "Display is continuous frequency"
                }
              ]
            }
          ]
        }
      ]
    },
    {
      "name": "Color Characteristics",
      "type": "packed",
      "offset": 25,
      "size": 10,
      "lsb": 0.0009765625,
      "bitsCount": 10,
      "values": [
        {
          "name": "Red_x",
          "parts": [
            {
              "offset": 2,
              "mask": "0xFF"
            },
            {
              "offset": 0,
              "mask": "0xC0"
            }
          ]
        },
        {
          "name": "Red_y",
          "parts": [
            {
              "offset": 3,
              "mask": "0xFF"
            },
            {
              "offset": 0,
              "mask": "0x30"
            }
          ]
        },
        {
          "name": "Green_x",
          "parts": [
            {
              "offset": 4,
              "mask": "0xFF"
            },
            {
              "offset": 0,
              "mask": "0xC"
            }
          ]
        },
        {
          "name": "Green_y",
          "parts": [
            {
              "offset": 5,
              "mask": "0xFF"
            },
            {
              "offset": 0,
              "mask": "0x3"
            }
          ]
        },
        {
          "name": "Blue_x",
          "parts": [
            {
              "offset": 6,
              "mask": "0xFF"
            },
            {
              "offset": 1,
              "mask": "0xC0"
            }
          ]
        },
        {
          "name": "Blue_y",
          "parts": [
            {
              "offset": 7,
              "mask": "0xFF"
            },
            {
              "offset": 1,
              "mask": "0x30"
            }
          ]
        },
        {
          "name": "White_x",
          "parts": [
            {
              "offset": 8,
              "mask": "0xFF"
            },
            {
              "offset": 1,
              "mask": "0xC"
            }
          ]
        },
        {
          "name": "White_y",
          "parts": [
            {
              "offset": 9,
              "mask": "0xFF"
            },
            {
              "offset": 1,
              "mask": "0x3"
            }
          ]
        }
      ]
    },
    {
      "name": "Established Timings I",
      "type": "bool",
      "offset": 35,
      "size": 1,
      "values": [
        {
          "mask": "0x80",
          "true": "720 x 400 @ 70Hz"
        },
        {
          "mask": "0x40",
          "true": "720 x 400 @ 88Hz"
        },
        {
          "mask": "0x20",
          "true": "640 x 480 @ 60Hz"
        },
        {
          "mask": "0x10",
          "true": "640 x 480 @ 67Hz"
        },
        {
          "mask": "0x8",
          "true": "640 x 480 @ 72Hz"
        },
        {
          "mask": "0x4",
          "true": "640 x 480 @ 75Hz"
        },
        {
          "mask": "0x2",
          "true": "800 x 600 @ 56Hz"
        },
        {
          "mask": "0x1",
          "true": "800 x 600 @ 60Hz"
        }
      ]
    },
    {
      "name": "Established Timings II",
      "type": "bool",
      "offset": 36,
      "size": 1,
      "values": [
        {
          "mask": "0x80",
          "true": "800 x 600 @ 72Hz"
        },
        {
          "mask": "0x40",
          "true": "800 x 600 @ 75Hz"
        },
        {
          "mask": "0x20",
          "true": "832 x 624 @ 75Hz"
        },
        {
          "mask": "0x10",
          "true": "1024 x 768 @ 87Hz(I)"
        },
        {
          "mask": "0x8",
          "true": "1024 x 768 @ 60Hz"
        },
        {
          "mask": "0x4",
          "true": "1024 x 768 @ 70Hz"
        },
        {
          "mask": "0x2",
          "true": "1024 x 768 @ 75Hz"
        },
        {
          "mask": "0x1",
          "true": "1280 x 1024 @ 75Hz"
        }
      ]
    },
    {
      "name": "Manufacturer's Timings",
      "type": "bool",
      "offset": 37,
      "size": 1,
      "values": [
        {
          "mask": "0x80",
          "true": "1152 x 870 @ 75Hz"
        }
      ]
    },
    {
      "types": [
        {
          "name": "Pix",
          "on_read_steps": [
            {
              "operator": "+",
              "r_operand": 31
            },
            {
              "operator": "*",
              "r_operand": 8
            }
          ],
          "on_write_steps": [
            {
              "operator": "/",
              "r_operand": 8
            },
            {
              "operator": "-",
              "r_operand": 31
            }
          ]
        },
        {
          "name": "Refresh",
          "on_read_steps": [
            {
              "operator": "+",
              "r_operand": 60
            }
          ],
          "on_write_steps": [
            {
              "operator": "-",
              "r_operand": 60
            }
          ]
        }
      ],
      "name": "Standard Timings: Identification",
      "offset": 38,
      "size": 16,
      "items": [
        {
          "name": "Standard Timing 1",
          "offset": 0,
          "size": 2,
          "values": [
            {
              "offset": 0,
              "mask": "0x80",
              "type": "Pix"
            },
            {
              "name": "Image Aspect Ratio",
              "type": "enum",
              "offset": 1,
              "mask": "0xC0",
              "values": [
                {
                  "value": 0,
                  "name": "16 : 10 AR"
                },
                {
                  "value": 1,
                  "name": "4 : 3 AR"
                },
                {
                  "value": 2,
                  "name": "5 : 4 AR"
                },
                {
                  "value": 3,
                  "name": "16 : 9 AR"
                }
              ]
            },
            {
              "name": "Field Refresh Rate",
              "offset": 1,
              "mask": "0x3F",
              "type": "Refresh"
            }
          ]
        },
        {
          "name": "Standard Timing 2",
          "offset": 1,
          "size": 2,
          "values": [
            {
              "offset": 0,
              "mask": "0x80",
              "type": "Pix"
            },
            {
              "name": "Image Aspect Ratio",
              "type": "enum",
              "offset": 1,
              "mask": "0xC0",
              "values": [
                {
                  "value": 0,
                  "name": "16 : 10 AR"
                },
                {
                  "value": 1,
                  "name": "4 : 3 AR"
                },
                {
                  "value": 2,
                  "name": "5 : 4 AR"
                },
                {
                  "value": 3,
                  "name": "16 : 9 AR"
                }
              ]
            },
            {
              "name": "Field Refresh Rate",
              "offset": 1,
              "mask": "0x3F",
              "type": "Refresh"
            }
          ]
        },
        {
          "name": "Standard Timing 3",
          "offset": 2,
          "size": 2,
          "values": [
            {
              "offset": 0,
              "mask": "0x80",
              "type": "Pix"
            },
            {
              "name": "Image Aspect Ratio",
              "type": "enum",
              "offset": 1,
              "mask": "0xC0",
              "values": [
                {
                  "value": 0,
                  "name": "16 : 10 AR"
                },
                {
                  "value": 1,
                  "name": "4 : 3 AR"
                },
                {
                  "value": 2,
                  "name": "5 : 4 AR"
                },
                {
                  "value": 3,
                  "name": "16 : 9 AR"
                }
              ]
            },
            {
              "name": "Field Refresh Rate",
              "offset": 1,
              "mask": "0x3F",
              "type": "Refresh"
            }
          ]
        },
        {
          "name": "Standard Timing 4",
          "offset": 4,
          "size": 2,
          "values": [
            {
              "offset": 0,
              "mask": "0x80",
              "type": "Pix"
            },
            {
              "name": "Image Aspect Ratio",
              "type": "enum",
              "offset": 1,
              "mask": "0xC0",
              "values": [
                {
                  "value": 0,
                  "name": "16 : 10 AR"
                },
                {
                  "value": 1,
                  "name": "4 : 3 AR"
                },
                {
                  "value": 2,
                  "name": "5 : 4 AR"
                },
                {
                  "value": 3,
                  "name": "16 : 9 AR"
                }
              ]
            },
            {
              "name": "Field Refresh Rate",
              "offset": 1,
              "mask": "0x3F",
              "type": "Refresh"
            }
          ]
        },
        {
          "name": "Standard Timing 5",
          "offset": 6,
          "size": 2,
          "values": [
            {
              "offset": 0,
              "mask": "0x80",
              "type": "Pix"
            },
            {
              "name": "Image Aspect Ratio",
              "type": "enum",
              "offset": 1,
              "mask": "0xC0",
              "values": [
                {
                  "value": 0,
                  "name": "16 : 10 AR"
                },
                {
                  "value": 1,
                  "name": "4 : 3 AR"
                },
                {
                  "value": 2,
                  "name": "5 : 4 AR"
                },
                {
                  "value": 3,
                  "name": "16 : 9 AR"
                }
              ]
            },
            {
              "name": "Field Refresh Rate",
              "offset": 1,
              "mask": "0x3F",
              "type": "Refresh"
            }
          ]
        },
        {
          "name": "Standard Timing 6",
          "offset": 8,
          "size": 2,
          "values": [
            {
              "offset": 0,
              "mask": "0x80",
              "type": "Pix"
            },
            {
              "name": "Image Aspect Ratio",
              "type": "enum",
              "offset": 1,
              "mask": "0xC0",
              "values": [
                {
                  "value": 0,
                  "name": "16 : 10 AR"
                },
                {
                  "value": 1,
                  "name": "4 : 3 AR"
                },
                {
                  "value": 2,
                  "name": "5 : 4 AR"
                },
                {
                  "value": 3,
                  "name": "16 : 9 AR"
                }
              ]
            },
            {
              "name": "Field Refresh Rate",
              "offset": 1,
              "mask": "0x3F",
              "type": "Refresh"
            }
          ]
        },
        {
          "name": "Standard Timing 7",
          "offset": 10,
          "size": 2,
          "values": [
            {
              "offset": 0,
              "mask": "0x80",
              "type": "Pix"
            },
            {
              "name": "Image Aspect Ratio",
              "type": "enum",
              "offset": 1,
              "mask": "0xC0",
              "values": [
                {
                  "value": 0,
                  "name": "16 : 10 AR"
                },
                {
                  "value": 1,
                  "name": "4 : 3 AR"
                },
                {
                  "value": 2,
                  "name": "5 : 4 AR"
                },
                {
                  "value": 3,
                  "name": "16 : 9 AR"
                }
              ]
            },
            {
              "name": "Field Refresh Rate",
              "offset": 1,
              "mask": "0x3F",
              "type": "Refresh"
            }
          ]
        },
        {
          "name": "Standard Timing 8",
          "offset": 12,
          "size": 2,
          "values": [
            {
              "offset": 0,
              "mask": "0x80",
              "type": "Pix"
            },
            {
              "name": "Image Aspect Ratio",
              "type": "enum",
              "offset": 1,
              "mask": "0xC0",
              "values": [
                {
                  "value": 0,
                  "name": "16 : 10 AR"
                },
                {
                  "value": 1,
                  "name": "4 : 3 AR"
                },
                {
                  "value": 2,
                  "name": "5 : 4 AR"
                },
                {
                  "value": 3,
                  "name": "16 : 9 AR"
                }
              ]
            },
            {
              "name": "Field Refresh Rate",
              "offset": 1,
              "mask": "0x3F",
              "type": "Refresh"
            }
          ]
        }
      ]
    },
    {
      "ref": "Block0_Item7_TIM.json"
    },
    {
      "ref": "Block0_Item8_TIM.json"
    },
    {
      "ref": "Block0_Item8_DES.json"
    },
    {
      "ref": "Block0_Item9_TIM.json"
    },
    {
      "ref": "Block0_Item9_DES.json"
    },
    {
      "ref": "Block0_Item10_TIM.json"
    },
    {
      "ref": "Block0_Item10_DES.json"
    },
    {
      "name": "Extension Block Count N",
      "offset": 126,
      "size": 1
    },
    {
      "name": "Checksum C",
      "offset": 127,
      "size": 1
    }
  ]
}